%YAML 1.1
%TAG !u! tag:unity3d.com,2011:
--- !u!114 &11400000
MonoBehaviour:
  m_ObjectHideFlags: 0
  m_CorrespondingSourceObject: {fileID: 0}
  m_PrefabInstance: {fileID: 0}
  m_PrefabAsset: {fileID: 0}
  m_GameObject: {fileID: 0}
  m_Enabled: 1
  m_EditorHideFlags: 0
  m_Script: {fileID: 11500000, guid: e7e7db9a2688ed540af9819c456ba2e2, type: 3}
  m_Name: ToggleLabelSelected
  m_EditorClassIdentifier: 
  Name: 
  Settings:
  - Name: ScaleOffsetColorTheme
    AssemblyQualifiedName: Microsoft.MixedReality.Toolkit.UI.ScaleOffsetColorTheme,
      Microsoft.MixedReality.Toolkit.SDK
    Properties:
    - Name: Scale
      Type: 6
      Values:
      - Name: Default
        String: 
        Bool: 0
        Int: 0
        Float: 0
        Texture: {fileID: 0}
        Material: {fileID: 0}
        GameObject: {fileID: 0}
        Vector2: {x: 0, y: 0}
        Vector3: {x: 1, y: 1, z: 1}
        Vector4: {x: 0, y: 0, z: 0, w: 0}
        Color: {r: 0, g: 0, b: 0, a: 0}
        Quaternion: {x: 0, y: 0, z: 0, w: 0}
        AudioClip: {fileID: 0}
        Animation: {fileID: 0}
      - Name: Focus
        String: 
        Bool: 0
        Int: 0
        Float: 0
        Texture: {fileID: 0}
        Material: {fileID: 0}
        GameObject: {fileID: 0}
        Vector2: {x: 0, y: 0}
        Vector3: {x: 1, y: 1, z: 1}
        Vector4: {x: 0, y: 0, z: 0, w: 0}
        Color: {r: 0, g: 0, b: 0, a: 0}
        Quaternion: {x: 0, y: 0, z: 0, w: 0}
        AudioClip: {fileID: 0}
        Animation: {fileID: 0}
      - Name: Press
        String: 
        Bool: 0
        Int: 0
        Float: 0
        Texture: {fileID: 0}
        Material: {fileID: 0}
        GameObject: {fileID: 0}
        Vector2: {x: 0, y: 0}
        Vector3: {x: 1, y: 1, z: 1}
        Vector4: {x: 0, y: 0, z: 0, w: 0}
        Color: {r: 0, g: 0, b: 0, a: 0}
        Quaternion: {x: 0, y: 0, z: 0, w: 0}
        AudioClip: {fileID: 0}
        Animation: {fileID: 0}
      - Name: Disabled
        String: 
        Bool: 0
        Int: 0
        Float: 0
        Texture: {fileID: 0}
        Material: {fileID: 0}
        GameObject: {fileID: 0}
        Vector2: {x: 0, y: 0}
        Vector3: {x: 1, y: 1, z: 1}
        Vector4: {x: 0, y: 0, z: 0, w: 0}
        Color: {r: 0, g: 0, b: 0, a: 0}
        Quaternion: {x: 0, y: 0, z: 0, w: 0}
        AudioClip: {fileID: 0}
        Animation: {fileID: 0}
      StartValue:
        Name: 
        String: 
        Bool: 0
        Int: 0
        Float: 0
        Texture: {fileID: 0}
        Material: {fileID: 0}
        GameObject: {fileID: 0}
        Vector2: {x: 0, y: 0}
        Vector3: {x: 0, y: 0, z: 0}
        Vector4: {x: 0, y: 0, z: 0, w: 0}
        Color: {r: 0, g: 0, b: 0, a: 0}
        Quaternion: {x: 0, y: 0, z: 0, w: 0}
        AudioClip: {fileID: 0}
        Animation: {fileID: 0}
      PropId: 0
      ShaderOptions: []
      ShaderOptionNames: []
      Default:
        Name: 
        String: 
        Bool: 0
        Int: 0
        Float: 0
        Texture: {fileID: 0}
        Material: {fileID: 0}
        GameObject: {fileID: 0}
        Vector2: {x: 0, y: 0}
        Vector3: {x: 0, y: 0, z: 0}
        Vector4: {x: 0, y: 0, z: 0, w: 0}
        Color: {r: 0, g: 0, b: 0, a: 0}
        Quaternion: {x: 0, y: 0, z: 0, w: 0}
        AudioClip: {fileID: 0}
        Animation: {fileID: 0}
      ShaderName: Mixed Reality Toolkit/Standard
    - Name: Offset
      Type: 6
      Values:
      - Name: Default
        String: 
        Bool: 0
        Int: 0
        Float: 0
        Texture: {fileID: 0}
        Material: {fileID: 0}
        GameObject: {fileID: 0}
        Vector2: {x: 0, y: 0}
        Vector3: {x: 0, y: 0, z: 0}
        Vector4: {x: 0, y: 0, z: 0, w: 0}
        Color: {r: 0, g: 0, b: 0, a: 0}
        Quaternion: {x: 0, y: 0, z: 0, w: 0}
        AudioClip: {fileID: 0}
        Animation: {fileID: 0}
      - Name: Focus
        String: 
        Bool: 0
        Int: 0
        Float: 0
        Texture: {fileID: 0}
        Material: {fileID: 0}
        GameObject: {fileID: 0}
        Vector2: {x: 0, y: 0}
        Vector3: {x: 0, y: 0, z: -0.003}
        Vector4: {x: 0, y: 0, z: 0, w: 0}
        Color: {r: 0, g: 0, b: 0, a: 0}
        Quaternion: {x: 0, y: 0, z: 0, w: 0}
        AudioClip: {fileID: 0}
        Animation: {fileID: 0}
      - Name: Press
        String: 
        Bool: 0
        Int: 0
        Float: 0
        Texture: {fileID: 0}
        Material: {fileID: 0}
        GameObject: {fileID: 0}
        Vector2: {x: 0, y: 0}
        Vector3: {x: 0, y: 0, z: 0.003}
        Vector4: {x: 0, y: 0, z: 0, w: 0}
        Color: {r: 0, g: 0, b: 0, a: 0}
        Quaternion: {x: 0, y: 0, z: 0, w: 0}
        AudioClip: {fileID: 0}
        Animation: {fileID: 0}
      - Name: Disabled
        String: 
        Bool: 0
        Int: 0
        Float: 0
        Texture: {fileID: 0}
        Material: {fileID: 0}
        GameObject: {fileID: 0}
        Vector2: {x: 0, y: 0}
        Vector3: {x: 0, y: 0, z: 0}
        Vector4: {x: 0, y: 0, z: 0, w: 0}
        Color: {r: 0, g: 0, b: 0, a: 0}
        Quaternion: {x: 0, y: 0, z: 0, w: 0}
        AudioClip: {fileID: 0}
        Animation: {fileID: 0}
      StartValue:
        Name: 
        String: 
        Bool: 0
        Int: 0
        Float: 0
        Texture: {fileID: 0}
        Material: {fileID: 0}
        GameObject: {fileID: 0}
        Vector2: {x: 0, y: 0}
        Vector3: {x: 0, y: 0, z: 0}
        Vector4: {x: 0, y: 0, z: 0, w: 0}
        Color: {r: 0, g: 0, b: 0, a: 0}
        Quaternion: {x: 0, y: 0, z: 0, w: 0}
        AudioClip: {fileID: 0}
        Animation: {fileID: 0}
      PropId: 0
      ShaderOptions: []
      ShaderOptionNames: []
      Default:
        Name: 
        String: 
        Bool: 0
        Int: 0
        Float: 0
        Texture: {fileID: 0}
        Material: {fileID: 0}
        GameObject: {fileID: 0}
        Vector2: {x: 0, y: 0}
        Vector3: {x: 0, y: 0, z: 0}
        Vector4: {x: 0, y: 0, z: 0, w: 0}
        Color: {r: 0, g: 0, b: 0, a: 0}
        Quaternion: {x: 0, y: 0, z: 0, w: 0}
        AudioClip: {fileID: 0}
        Animation: {fileID: 0}
      ShaderName: Mixed Reality Toolkit/Standard
    - Name: Color
      Type: 2
      Values:
      - Name: Default
        String: 
        Bool: 0
        Int: 0
        Float: 0
        Texture: {fileID: 0}
        Material: {fileID: 0}
        GameObject: {fileID: 0}
        Vector2: {x: 0, y: 0}
        Vector3: {x: 0, y: 0, z: 0}
        Vector4: {x: 0, y: 0, z: 0, w: 0}
        Color: {r: 0.73700607, g: 0.87070245, b: 0.9245283, a: 1}
        Quaternion: {x: 0, y: 0, z: 0, w: 0}
        AudioClip: {fileID: 0}
        Animation: {fileID: 0}
      - Name: Focus
        String: 
        Bool: 0
        Int: 0
        Float: 0
        Texture: {fileID: 0}
        Material: {fileID: 0}
        GameObject: {fileID: 0}
        Vector2: {x: 0, y: 0}
        Vector3: {x: 0, y: 0, z: 0}
        Vector4: {x: 0, y: 0, z: 0, w: 0}
        Color: {r: 0.9292453, g: 0.9793632, b: 1, a: 1}
        Quaternion: {x: 0, y: 0, z: 0, w: 0}
        AudioClip: {fileID: 0}
        Animation: {fileID: 0}
      - Name: Press
        String: 
        Bool: 0
        Int: 0
        Float: 0
        Texture: {fileID: 0}
        Material: {fileID: 0}
        GameObject: {fileID: 0}
        Vector2: {x: 0, y: 0}
        Vector3: {x: 0, y: 0, z: 0}
        Vector4: {x: 0, y: 0, z: 0, w: 0}
        Color: {r: 0.508366, g: 0.79805976, b: 0.9056604, a: 1}
        Quaternion: {x: 0, y: 0, z: 0, w: 0}
        AudioClip: {fileID: 0}
        Animation: {fileID: 0}
      - Name: Disabled
        String: 
        Bool: 0
        Int: 0
        Float: 0
        Texture: {fileID: 0}
        Material: {fileID: 0}
        GameObject: {fileID: 0}
        Vector2: {x: 0, y: 0}
        Vector3: {x: 0, y: 0, z: 0}
        Vector4: {x: 0, y: 0, z: 0, w: 0}
        Color: {r: 0.5882353, g: 0.5882353, b: 0.5882353, a: 1}
        Quaternion: {x: 0, y: 0, z: 0, w: 0}
        AudioClip: {fileID: 0}
        Animation: {fileID: 0}
      StartValue:
        Name: 
        String: 
        Bool: 0
        Int: 0
        Float: 0
        Texture: {fileID: 0}
        Material: {fileID: 0}
        GameObject: {fileID: 0}
        Vector2: {x: 0, y: 0}
        Vector3: {x: 0, y: 0, z: 0}
        Vector4: {x: 0, y: 0, z: 0, w: 0}
        Color: {r: 0, g: 0, b: 0, a: 0}
        Quaternion: {x: 0, y: 0, z: 0, w: 0}
        AudioClip: {fileID: 0}
        Animation: {fileID: 0}
      PropId: 0
      ShaderOptions:
      - Name: _Color
        Type: 0
        Range: {x: 1, y: 1}
      ShaderOptionNames:
      - _Color
      Default:
        Name: 
        String: 
        Bool: 0
        Int: 0
        Float: 0
        Texture: {fileID: 0}
        Material: {fileID: 0}
        GameObject: {fileID: 0}
        Vector2: {x: 0, y: 0}
        Vector3: {x: 0, y: 0, z: 0}
        Vector4: {x: 0, y: 0, z: 0, w: 0}
        Color: {r: 0, g: 0, b: 0, a: 0}
        Quaternion: {x: 0, y: 0, z: 0, w: 0}
        AudioClip: {fileID: 0}
        Animation: {fileID: 0}
      ShaderName: MixedRealityToolkit/Examples/UnlitTriplanar
    History:
    - Name: Color
      Type: 2
      Values:
      - Name: 
        String: 
        Bool: 0
        Int: 0
        Float: 0
        Texture: {fileID: 0}
        Material: {fileID: 0}
        GameObject: {fileID: 0}
        Vector2: {x: 0, y: 0}
        Vector3: {x: 0, y: 0, z: 0}
        Vector4: {x: 0, y: 0, z: 0, w: 0}
        Color: {r: 1, g: 1, b: 1, a: 1}
        Quaternion: {x: 0, y: 0, z: 0, w: 0}
        AudioClip: {fileID: 0}
        Animation: {fileID: 0}
      - Name: 
        String: 
        Bool: 0
        Int: 0
        Float: 0
        Texture: {fileID: 0}
        Material: {fileID: 0}
        GameObject: {fileID: 0}
        Vector2: {x: 0, y: 0}
        Vector3: {x: 0, y: 0, z: 0}
        Vector4: {x: 0, y: 0, z: 0, w: 0}
        Color: {r: 1, g: 1, b: 1, a: 1}
        Quaternion: {x: 0, y: 0, z: 0, w: 0}
        AudioClip: {fileID: 0}
        Animation: {fileID: 0}
      - Name: 
        String: 
        Bool: 0
        Int: 0
        Float: 0
        Texture: {fileID: 0}
        Material: {fileID: 0}
        GameObject: {fileID: 0}
        Vector2: {x: 0, y: 0}
        Vector3: {x: 0, y: 0, z: 0}
        Vector4: {x: 0, y: 0, z: 0, w: 0}
        Color: {r: 1, g: 1, b: 1, a: 1}
        Quaternion: {x: 0, y: 0, z: 0, w: 0}
        AudioClip: {fileID: 0}
        Animation: {fileID: 0}
      - Name: 
        String: 
        Bool: 0
        Int: 0
        Float: 0
        Texture: {fileID: 0}
        Material: {fileID: 0}
        GameObject: {fileID: 0}
        Vector2: {x: 0, y: 0}
        Vector3: {x: 0, y: 0, z: 0}
        Vector4: {x: 0, y: 0, z: 0, w: 0}
        Color: {r: 1, g: 1, b: 1, a: 1}
        Quaternion: {x: 0, y: 0, z: 0, w: 0}
        AudioClip: {fileID: 0}
        Animation: {fileID: 0}
      StartValue:
        Name: 
        String: 
        Bool: 0
        Int: 0
        Float: 0
        Texture: {fileID: 0}
        Material: {fileID: 0}
        GameObject: {fileID: 0}
        Vector2: {x: 0, y: 0}
        Vector3: {x: 0, y: 0, z: 0}
        Vector4: {x: 0, y: 0, z: 0, w: 0}
        Color: {r: 0, g: 0, b: 0, a: 0}
        Quaternion: {x: 0, y: 0, z: 0, w: 0}
        AudioClip: {fileID: 0}
        Animation: {fileID: 0}
      PropId: 0
      ShaderOptions: []
      ShaderOptionNames: []
      Default:
        Name: 
        String: 
        Bool: 0
        Int: 0
        Float: 0
        Texture: {fileID: 0}
        Material: {fileID: 0}
        GameObject: {fileID: 0}
        Vector2: {x: 0, y: 0}
        Vector3: {x: 0, y: 0, z: 0}
        Vector4: {x: 0, y: 0, z: 0, w: 0}
        Color: {r: 0, g: 0, b: 0, a: 0}
        Quaternion: {x: 0, y: 0, z: 0, w: 0}
        AudioClip: {fileID: 0}
        Animation: {fileID: 0}
      ShaderName: 
    - Name: Offset
      Type: 6
      Values:
      - Name: 
        String: 
        Bool: 0
        Int: 0
        Float: 0
        Texture: {fileID: 0}
        Material: {fileID: 0}
        GameObject: {fileID: 0}
        Vector2: {x: 0, y: 0}
        Vector3: {x: 0, y: 0, z: 0}
        Vector4: {x: 0, y: 0, z: 0, w: 0}
        Color: {r: 0, g: 0, b: 0, a: 0}
        Quaternion: {x: 0, y: 0, z: 0, w: 0}
        AudioClip: {fileID: 0}
        Animation: {fileID: 0}
      - Name: 
        String: 
        Bool: 0
        Int: 0
        Float: 0
        Texture: {fileID: 0}
        Material: {fileID: 0}
        GameObject: {fileID: 0}
        Vector2: {x: 0, y: 0}
        Vector3: {x: 0, y: 0, z: 0}
        Vector4: {x: 0, y: 0, z: 0, w: 0}
        Color: {r: 0, g: 0, b: 0, a: 0}
        Quaternion: {x: 0, y: 0, z: 0, w: 0}
        AudioClip: {fileID: 0}
        Animation: {fileID: 0}
      - Name: 
        String: 
        Bool: 0
        Int: 0
        Float: 0
        Texture: {fileID: 0}
        Material: {fileID: 0}
        GameObject: {fileID: 0}
        Vector2: {x: 0, y: 0}
        Vector3: {x: 0, y: 0, z: 0}
        Vector4: {x: 0, y: 0, z: 0, w: 0}
        Color: {r: 0, g: 0, b: 0, a: 0}
        Quaternion: {x: 0, y: 0, z: 0, w: 0}
        AudioClip: {fileID: 0}
        Animation: {fileID: 0}
      - Name: 
        String: 
        Bool: 0
        Int: 0
        Float: 0
        Texture: {fileID: 0}
        Material: {fileID: 0}
        GameObject: {fileID: 0}
        Vector2: {x: 0, y: 0}
        Vector3: {x: 0, y: 0, z: 0}
        Vector4: {x: 0, y: 0, z: 0, w: 0}
        Color: {r: 0, g: 0, b: 0, a: 0}
        Quaternion: {x: 0, y: 0, z: 0, w: 0}
        AudioClip: {fileID: 0}
        Animation: {fileID: 0}
      StartValue:
        Name: 
        String: 
        Bool: 0
        Int: 0
        Float: 0
        Texture: {fileID: 0}
        Material: {fileID: 0}
        GameObject: {fileID: 0}
        Vector2: {x: 0, y: 0}
        Vector3: {x: 0, y: 0, z: 0}
        Vector4: {x: 0, y: 0, z: 0, w: 0}
        Color: {r: 0, g: 0, b: 0, a: 0}
        Quaternion: {x: 0, y: 0, z: 0, w: 0}
        AudioClip: {fileID: 0}
        Animation: {fileID: 0}
      PropId: 0
      ShaderOptions: []
      ShaderOptionNames: []
      Default:
        Name: 
        String: 
        Bool: 0
        Int: 0
        Float: 0
        Texture: {fileID: 0}
        Material: {fileID: 0}
        GameObject: {fileID: 0}
        Vector2: {x: 0, y: 0}
        Vector3: {x: 0, y: 0, z: 0}
        Vector4: {x: 0, y: 0, z: 0, w: 0}
        Color: {r: 0, g: 0, b: 0, a: 0}
        Quaternion: {x: 0, y: 0, z: 0, w: 0}
        AudioClip: {fileID: 0}
        Animation: {fileID: 0}
      ShaderName: 
    - Name: Scale
      Type: 6
      Values:
      - Name: 
        String: 
        Bool: 0
        Int: 0
        Float: 0
        Texture: {fileID: 0}
        Material: {fileID: 0}
        GameObject: {fileID: 0}
        Vector2: {x: 0, y: 0}
        Vector3: {x: 1, y: 1, z: 1}
        Vector4: {x: 0, y: 0, z: 0, w: 0}
        Color: {r: 0, g: 0, b: 0, a: 0}
        Quaternion: {x: 0, y: 0, z: 0, w: 0}
        AudioClip: {fileID: 0}
        Animation: {fileID: 0}
      - Name: 
        String: 
        Bool: 0
        Int: 0
        Float: 0
        Texture: {fileID: 0}
        Material: {fileID: 0}
        GameObject: {fileID: 0}
        Vector2: {x: 0, y: 0}
        Vector3: {x: 1, y: 1, z: 1}
        Vector4: {x: 0, y: 0, z: 0, w: 0}
        Color: {r: 0, g: 0, b: 0, a: 0}
        Quaternion: {x: 0, y: 0, z: 0, w: 0}
        AudioClip: {fileID: 0}
        Animation: {fileID: 0}
      - Name: 
        String: 
        Bool: 0
        Int: 0
        Float: 0
        Texture: {fileID: 0}
        Material: {fileID: 0}
        GameObject: {fileID: 0}
        Vector2: {x: 0, y: 0}
        Vector3: {x: 1, y: 1, z: 1}
        Vector4: {x: 0, y: 0, z: 0, w: 0}
        Color: {r: 0, g: 0, b: 0, a: 0}
        Quaternion: {x: 0, y: 0, z: 0, w: 0}
        AudioClip: {fileID: 0}
        Animation: {fileID: 0}
      - Name: 
        String: 
        Bool: 0
        Int: 0
        Float: 0
        Texture: {fileID: 0}
        Material: {fileID: 0}
        GameObject: {fileID: 0}
        Vector2: {x: 0, y: 0}
        Vector3: {x: 1, y: 1, z: 1}
        Vector4: {x: 0, y: 0, z: 0, w: 0}
        Color: {r: 0, g: 0, b: 0, a: 0}
        Quaternion: {x: 0, y: 0, z: 0, w: 0}
        AudioClip: {fileID: 0}
        Animation: {fileID: 0}
      StartValue:
        Name: 
        String: 
        Bool: 0
        Int: 0
        Float: 0
        Texture: {fileID: 0}
        Material: {fileID: 0}
        GameObject: {fileID: 0}
        Vector2: {x: 0, y: 0}
        Vector3: {x: 0, y: 0, z: 0}
        Vector4: {x: 0, y: 0, z: 0, w: 0}
        Color: {r: 0, g: 0, b: 0, a: 0}
        Quaternion: {x: 0, y: 0, z: 0, w: 0}
        AudioClip: {fileID: 0}
        Animation: {fileID: 0}
      PropId: 0
      ShaderOptions: []
      ShaderOptionNames: []
      Default:
        Name: 
        String: 
        Bool: 0
        Int: 0
        Float: 0
        Texture: {fileID: 0}
        Material: {fileID: 0}
        GameObject: {fileID: 0}
        Vector2: {x: 0, y: 0}
        Vector3: {x: 0, y: 0, z: 0}
        Vector4: {x: 0, y: 0, z: 0, w: 0}
        Color: {r: 0, g: 0, b: 0, a: 0}
        Quaternion: {x: 0, y: 0, z: 0, w: 0}
        AudioClip: {fileID: 0}
        Animation: {fileID: 0}
      ShaderName: 
    CustomSettings: []
    CustomHistory: []
    Easing:
      Enabled: 1
      Curve:
        serializedVersion: 2
        m_Curve:
        - serializedVersion: 3
          time: 0
          value: 0
          inSlope: 2
          outSlope: 2
          tangentMode: 0
          weightedMode: 0
          inWeight: 0.33333334
          outWeight: 0.33333334
        - serializedVersion: 3
          time: 1
          value: 1
          inSlope: 0
          outSlope: 0
          tangentMode: 0
          weightedMode: 0
          inWeight: 0.33333334
          outWeight: 0.33333334
        m_PreInfinity: 2
        m_PostInfinity: 2
        m_RotationOrder: 0
      LerpTime: 0.3
    NoEasing: 0
    IsValid: 1
    ThemeTarget:
      Properties: []
      Target: {fileID: 0}
      States: []
  - Name: InteractableStringTheme
    AssemblyQualifiedName: Microsoft.MixedReality.Toolkit.UI.InteractableStringTheme,
      Microsoft.MixedReality.Toolkit.SDK
    Properties:
    - Name: String
      Type: 14
      Values:
      - Name: Default
        String: on
        Bool: 0
        Int: 0
        Float: 0
        Texture: {fileID: 0}
        Material: {fileID: 0}
        GameObject: {fileID: 0}
        Vector2: {x: 0, y: 0}
        Vector3: {x: 0, y: 0, z: 0}
        Vector4: {x: 0, y: 0, z: 0, w: 0}
        Color: {r: 0, g: 0, b: 0, a: 0}
        Quaternion: {x: 0, y: 0, z: 0, w: 0}
        AudioClip: {fileID: 0}
        Animation: {fileID: 0}
      - Name: Focus
        String: on
        Bool: 0
        Int: 0
        Float: 0
        Texture: {fileID: 0}
        Material: {fileID: 0}
        GameObject: {fileID: 0}
        Vector2: {x: 0, y: 0}
        Vector3: {x: 0, y: 0, z: 0}
        Vector4: {x: 0, y: 0, z: 0, w: 0}
        Color: {r: 0, g: 0, b: 0, a: 0}
        Quaternion: {x: 0, y: 0, z: 0, w: 0}
        AudioClip: {fileID: 0}
        Animation: {fileID: 0}
      - Name: Pressed
        String: on
        Bool: 0
        Int: 0
        Float: 0
        Texture: {fileID: 0}
        Material: {fileID: 0}
        GameObject: {fileID: 0}
        Vector2: {x: 0, y: 0}
        Vector3: {x: 0, y: 0, z: 0}
        Vector4: {x: 0, y: 0, z: 0, w: 0}
        Color: {r: 0, g: 0, b: 0, a: 0}
        Quaternion: {x: 0, y: 0, z: 0, w: 0}
        AudioClip: {fileID: 0}
        Animation: {fileID: 0}
      - Name: Disabled
        String: on
        Bool: 0
        Int: 0
        Float: 0
        Texture: {fileID: 0}
        Material: {fileID: 0}
        GameObject: {fileID: 0}
        Vector2: {x: 0, y: 0}
        Vector3: {x: 0, y: 0, z: 0}
        Vector4: {x: 0, y: 0, z: 0, w: 0}
        Color: {r: 0, g: 0, b: 0, a: 0}
        Quaternion: {x: 0, y: 0, z: 0, w: 0}
        AudioClip: {fileID: 0}
        Animation: {fileID: 0}
      StartValue:
        Name: 
        String: 
        Bool: 0
        Int: 0
        Float: 0
        Texture: {fileID: 0}
        Material: {fileID: 0}
        GameObject: {fileID: 0}
        Vector2: {x: 0, y: 0}
        Vector3: {x: 0, y: 0, z: 0}
        Vector4: {x: 0, y: 0, z: 0, w: 0}
        Color: {r: 0, g: 0, b: 0, a: 0}
        Quaternion: {x: 0, y: 0, z: 0, w: 0}
        AudioClip: {fileID: 0}
        Animation: {fileID: 0}
      PropId: 0
      ShaderOptions: []
      ShaderOptionNames: []
      Default:
        Name: 
        String: 
        Bool: 0
        Int: 0
        Float: 0
        Texture: {fileID: 0}
        Material: {fileID: 0}
        GameObject: {fileID: 0}
        Vector2: {x: 0, y: 0}
        Vector3: {x: 0, y: 0, z: 0}
        Vector4: {x: 0, y: 0, z: 0, w: 0}
        Color: {r: 0, g: 0, b: 0, a: 0}
        Quaternion: {x: 0, y: 0, z: 0, w: 0}
        AudioClip: {fileID: 0}
        Animation: {fileID: 0}
      ShaderName: Mixed Reality Toolkit/Standard
    History:
    - Name: Color
      Type: 2
      Values:
      - Name: 
        String: 
        Bool: 0
        Int: 0
        Float: 0
        Texture: {fileID: 0}
        Material: {fileID: 0}
        GameObject: {fileID: 0}
        Vector2: {x: 0, y: 0}
        Vector3: {x: 0, y: 0, z: 0}
        Vector4: {x: 0, y: 0, z: 0, w: 0}
        Color: {r: 1, g: 1, b: 1, a: 1}
        Quaternion: {x: 0, y: 0, z: 0, w: 0}
        AudioClip: {fileID: 0}
        Animation: {fileID: 0}
      - Name: 
        String: 
        Bool: 0
        Int: 0
        Float: 0
        Texture: {fileID: 0}
        Material: {fileID: 0}
        GameObject: {fileID: 0}
        Vector2: {x: 0, y: 0}
        Vector3: {x: 0, y: 0, z: 0}
        Vector4: {x: 0, y: 0, z: 0, w: 0}
        Color: {r: 1, g: 1, b: 1, a: 1}
        Quaternion: {x: 0, y: 0, z: 0, w: 0}
        AudioClip: {fileID: 0}
        Animation: {fileID: 0}
      - Name: 
        String: 
        Bool: 0
        Int: 0
        Float: 0
        Texture: {fileID: 0}
        Material: {fileID: 0}
        GameObject: {fileID: 0}
        Vector2: {x: 0, y: 0}
        Vector3: {x: 0, y: 0, z: 0}
        Vector4: {x: 0, y: 0, z: 0, w: 0}
        Color: {r: 1, g: 1, b: 1, a: 1}
        Quaternion: {x: 0, y: 0, z: 0, w: 0}
        AudioClip: {fileID: 0}
        Animation: {fileID: 0}
      - Name: 
        String: 
        Bool: 0
        Int: 0
        Float: 0
        Texture: {fileID: 0}
        Material: {fileID: 0}
        GameObject: {fileID: 0}
        Vector2: {x: 0, y: 0}
        Vector3: {x: 0, y: 0, z: 0}
        Vector4: {x: 0, y: 0, z: 0, w: 0}
        Color: {r: 1, g: 1, b: 1, a: 1}
        Quaternion: {x: 0, y: 0, z: 0, w: 0}
        AudioClip: {fileID: 0}
        Animation: {fileID: 0}
      StartValue:
        Name: 
        String: 
        Bool: 0
        Int: 0
        Float: 0
        Texture: {fileID: 0}
        Material: {fileID: 0}
        GameObject: {fileID: 0}
        Vector2: {x: 0, y: 0}
        Vector3: {x: 0, y: 0, z: 0}
        Vector4: {x: 0, y: 0, z: 0, w: 0}
        Color: {r: 0, g: 0, b: 0, a: 0}
        Quaternion: {x: 0, y: 0, z: 0, w: 0}
        AudioClip: {fileID: 0}
        Animation: {fileID: 0}
      PropId: 0
      ShaderOptions: []
      ShaderOptionNames: []
      Default:
        Name: 
        String: 
        Bool: 0
        Int: 0
        Float: 0
        Texture: {fileID: 0}
        Material: {fileID: 0}
        GameObject: {fileID: 0}
        Vector2: {x: 0, y: 0}
        Vector3: {x: 0, y: 0, z: 0}
        Vector4: {x: 0, y: 0, z: 0, w: 0}
        Color: {r: 0, g: 0, b: 0, a: 0}
        Quaternion: {x: 0, y: 0, z: 0, w: 0}
        AudioClip: {fileID: 0}
        Animation: {fileID: 0}
      ShaderName: 
    - Name: Offset
      Type: 6
      Values:
      - Name: 
        String: 
        Bool: 0
        Int: 0
        Float: 0
        Texture: {fileID: 0}
        Material: {fileID: 0}
        GameObject: {fileID: 0}
        Vector2: {x: 0, y: 0}
        Vector3: {x: 0, y: 0, z: 0}
        Vector4: {x: 0, y: 0, z: 0, w: 0}
        Color: {r: 0, g: 0, b: 0, a: 0}
        Quaternion: {x: 0, y: 0, z: 0, w: 0}
        AudioClip: {fileID: 0}
        Animation: {fileID: 0}
      - Name: 
        String: 
        Bool: 0
        Int: 0
        Float: 0
        Texture: {fileID: 0}
        Material: {fileID: 0}
        GameObject: {fileID: 0}
        Vector2: {x: 0, y: 0}
        Vector3: {x: 0, y: 0, z: 0}
        Vector4: {x: 0, y: 0, z: 0, w: 0}
        Color: {r: 0, g: 0, b: 0, a: 0}
        Quaternion: {x: 0, y: 0, z: 0, w: 0}
        AudioClip: {fileID: 0}
        Animation: {fileID: 0}
      - Name: 
        String: 
        Bool: 0
        Int: 0
        Float: 0
        Texture: {fileID: 0}
        Material: {fileID: 0}
        GameObject: {fileID: 0}
        Vector2: {x: 0, y: 0}
        Vector3: {x: 0, y: 0, z: 0}
        Vector4: {x: 0, y: 0, z: 0, w: 0}
        Color: {r: 0, g: 0, b: 0, a: 0}
        Quaternion: {x: 0, y: 0, z: 0, w: 0}
        AudioClip: {fileID: 0}
        Animation: {fileID: 0}
      - Name: 
        String: 
        Bool: 0
        Int: 0
        Float: 0
        Texture: {fileID: 0}
        Material: {fileID: 0}
        GameObject: {fileID: 0}
        Vector2: {x: 0, y: 0}
        Vector3: {x: 0, y: 0, z: 0}
        Vector4: {x: 0, y: 0, z: 0, w: 0}
        Color: {r: 0, g: 0, b: 0, a: 0}
        Quaternion: {x: 0, y: 0, z: 0, w: 0}
        AudioClip: {fileID: 0}
        Animation: {fileID: 0}
      StartValue:
        Name: 
        String: 
        Bool: 0
        Int: 0
        Float: 0
        Texture: {fileID: 0}
        Material: {fileID: 0}
        GameObject: {fileID: 0}
        Vector2: {x: 0, y: 0}
        Vector3: {x: 0, y: 0, z: 0}
        Vector4: {x: 0, y: 0, z: 0, w: 0}
        Color: {r: 0, g: 0, b: 0, a: 0}
        Quaternion: {x: 0, y: 0, z: 0, w: 0}
        AudioClip: {fileID: 0}
        Animation: {fileID: 0}
      PropId: 0
      ShaderOptions: []
      ShaderOptionNames: []
      Default:
        Name: 
        String: 
        Bool: 0
        Int: 0
        Float: 0
        Texture: {fileID: 0}
        Material: {fileID: 0}
        GameObject: {fileID: 0}
        Vector2: {x: 0, y: 0}
        Vector3: {x: 0, y: 0, z: 0}
        Vector4: {x: 0, y: 0, z: 0, w: 0}
        Color: {r: 0, g: 0, b: 0, a: 0}
        Quaternion: {x: 0, y: 0, z: 0, w: 0}
        AudioClip: {fileID: 0}
        Animation: {fileID: 0}
      ShaderName: 
    - Name: Scale
      Type: 6
      Values:
      - Name: 
        String: 
        Bool: 0
        Int: 0
        Float: 0
        Texture: {fileID: 0}
        Material: {fileID: 0}
        GameObject: {fileID: 0}
        Vector2: {x: 0, y: 0}
        Vector3: {x: 1, y: 1, z: 1}
        Vector4: {x: 0, y: 0, z: 0, w: 0}
        Color: {r: 0, g: 0, b: 0, a: 0}
        Quaternion: {x: 0, y: 0, z: 0, w: 0}
        AudioClip: {fileID: 0}
        Animation: {fileID: 0}
      - Name: 
        String: 
        Bool: 0
        Int: 0
        Float: 0
        Texture: {fileID: 0}
        Material: {fileID: 0}
        GameObject: {fileID: 0}
        Vector2: {x: 0, y: 0}
        Vector3: {x: 1, y: 1, z: 1}
        Vector4: {x: 0, y: 0, z: 0, w: 0}
        Color: {r: 0, g: 0, b: 0, a: 0}
        Quaternion: {x: 0, y: 0, z: 0, w: 0}
        AudioClip: {fileID: 0}
        Animation: {fileID: 0}
      - Name: 
        String: 
        Bool: 0
        Int: 0
        Float: 0
        Texture: {fileID: 0}
        Material: {fileID: 0}
        GameObject: {fileID: 0}
        Vector2: {x: 0, y: 0}
        Vector3: {x: 1, y: 1, z: 1}
        Vector4: {x: 0, y: 0, z: 0, w: 0}
        Color: {r: 0, g: 0, b: 0, a: 0}
        Quaternion: {x: 0, y: 0, z: 0, w: 0}
        AudioClip: {fileID: 0}
        Animation: {fileID: 0}
      - Name: 
        String: 
        Bool: 0
        Int: 0
        Float: 0
        Texture: {fileID: 0}
        Material: {fileID: 0}
        GameObject: {fileID: 0}
        Vector2: {x: 0, y: 0}
        Vector3: {x: 1, y: 1, z: 1}
        Vector4: {x: 0, y: 0, z: 0, w: 0}
        Color: {r: 0, g: 0, b: 0, a: 0}
        Quaternion: {x: 0, y: 0, z: 0, w: 0}
        AudioClip: {fileID: 0}
        Animation: {fileID: 0}
      StartValue:
        Name: 
        String: 
        Bool: 0
        Int: 0
        Float: 0
        Texture: {fileID: 0}
        Material: {fileID: 0}
        GameObject: {fileID: 0}
        Vector2: {x: 0, y: 0}
        Vector3: {x: 0, y: 0, z: 0}
        Vector4: {x: 0, y: 0, z: 0, w: 0}
        Color: {r: 0, g: 0, b: 0, a: 0}
        Quaternion: {x: 0, y: 0, z: 0, w: 0}
        AudioClip: {fileID: 0}
        Animation: {fileID: 0}
      PropId: 0
      ShaderOptions: []
      ShaderOptionNames: []
      Default:
        Name: 
        String: 
        Bool: 0
        Int: 0
        Float: 0
        Texture: {fileID: 0}
        Material: {fileID: 0}
        GameObject: {fileID: 0}
        Vector2: {x: 0, y: 0}
        Vector3: {x: 0, y: 0, z: 0}
        Vector4: {x: 0, y: 0, z: 0, w: 0}
        Color: {r: 0, g: 0, b: 0, a: 0}
        Quaternion: {x: 0, y: 0, z: 0, w: 0}
        AudioClip: {fileID: 0}
        Animation: {fileID: 0}
      ShaderName: 
    - Name: Activate
      Type: 15
      Values:
      - Name: 
        String: 
        Bool: 1
        Int: 0
        Float: 0
        Texture: {fileID: 0}
        Material: {fileID: 0}
        GameObject: {fileID: 0}
        Vector2: {x: 0, y: 0}
        Vector3: {x: 0, y: 0, z: 0}
        Vector4: {x: 0, y: 0, z: 0, w: 0}
        Color: {r: 0, g: 0, b: 0, a: 0}
        Quaternion: {x: 0, y: 0, z: 0, w: 0}
        AudioClip: {fileID: 0}
        Animation: {fileID: 0}
      - Name: 
        String: 
        Bool: 1
        Int: 0
        Float: 0
        Texture: {fileID: 0}
        Material: {fileID: 0}
        GameObject: {fileID: 0}
        Vector2: {x: 0, y: 0}
        Vector3: {x: 0, y: 0, z: 0}
        Vector4: {x: 0, y: 0, z: 0, w: 0}
        Color: {r: 0, g: 0, b: 0, a: 0}
        Quaternion: {x: 0, y: 0, z: 0, w: 0}
        AudioClip: {fileID: 0}
        Animation: {fileID: 0}
      - Name: 
        String: 
        Bool: 1
        Int: 0
        Float: 0
        Texture: {fileID: 0}
        Material: {fileID: 0}
        GameObject: {fileID: 0}
        Vector2: {x: 0, y: 0}
        Vector3: {x: 0, y: 0, z: 0}
        Vector4: {x: 0, y: 0, z: 0, w: 0}
        Color: {r: 0, g: 0, b: 0, a: 0}
        Quaternion: {x: 0, y: 0, z: 0, w: 0}
        AudioClip: {fileID: 0}
        Animation: {fileID: 0}
      - Name: 
        String: 
        Bool: 1
        Int: 0
        Float: 0
        Texture: {fileID: 0}
        Material: {fileID: 0}
        GameObject: {fileID: 0}
        Vector2: {x: 0, y: 0}
        Vector3: {x: 0, y: 0, z: 0}
        Vector4: {x: 0, y: 0, z: 0, w: 0}
        Color: {r: 0, g: 0, b: 0, a: 0}
        Quaternion: {x: 0, y: 0, z: 0, w: 0}
        AudioClip: {fileID: 0}
        Animation: {fileID: 0}
      StartValue:
        Name: 
        String: 
        Bool: 0
        Int: 0
        Float: 0
        Texture: {fileID: 0}
        Material: {fileID: 0}
        GameObject: {fileID: 0}
        Vector2: {x: 0, y: 0}
        Vector3: {x: 0, y: 0, z: 0}
        Vector4: {x: 0, y: 0, z: 0, w: 0}
        Color: {r: 0, g: 0, b: 0, a: 0}
        Quaternion: {x: 0, y: 0, z: 0, w: 0}
        AudioClip: {fileID: 0}
        Animation: {fileID: 0}
      PropId: 0
      ShaderOptions: []
      ShaderOptionNames: []
      Default:
        Name: 
        String: 
        Bool: 0
        Int: 0
        Float: 0
        Texture: {fileID: 0}
        Material: {fileID: 0}
        GameObject: {fileID: 0}
        Vector2: {x: 0, y: 0}
        Vector3: {x: 0, y: 0, z: 0}
        Vector4: {x: 0, y: 0, z: 0, w: 0}
        Color: {r: 0, g: 0, b: 0, a: 0}
        Quaternion: {x: 0, y: 0, z: 0, w: 0}
        AudioClip: {fileID: 0}
        Animation: {fileID: 0}
      ShaderName: 
    CustomSettings: []
    CustomHistory: []
    Easing:
      Enabled: 0
      Curve:
        serializedVersion: 2
        m_Curve:
        - serializedVersion: 3
          time: 0
          value: 1
          inSlope: 0
          outSlope: 0
          tangentMode: 0
          weightedMode: 0
          inWeight: 0
          outWeight: 0
        - serializedVersion: 3
          time: 1
          value: 1
          inSlope: 0
          outSlope: 0
          tangentMode: 0
          weightedMode: 0
          inWeight: 0
          outWeight: 0
        m_PreInfinity: 2
        m_PostInfinity: 2
        m_RotationOrder: 4
      LerpTime: 0.5
    NoEasing: 1
    IsValid: 1
    ThemeTarget:
      Properties: []
      Target: {fileID: 0}
      States: []
  CustomSettings: []
  States: {fileID: 11400000, guid: 5eac1712038236e4b8ffdb3893804fe1, type: 2}
